text-cleansing
…
positive <- readLines("data/ID-OpinionWords-master/positive.txt")
negative <- readLines("data/ID-OpinionWords-master/negative.txt")

pos_reshape <- gather(as.data.frame(positive), "sentiment", "word")
neg_reshape <- gather(as.data.frame(negative), "sentiment", "word")

id_sentiment <- rbind(pos_reshape, neg_reshape)

unnest(all_twit_df, text)

## # A tibble: 8,277 x 2
##    text       screenName  
##    <chr>      <chr>       
##  1 halo       Atmosfia_INA
##  2 gaess      Atmosfia_INA
##  3 dukung     Atmosfia_INA
##  4 program    Atmosfia_INA
##  5 pemerintah Atmosfia_INA
##  6 bagibagi   Atmosfia_INA
##  7 pulsa      Atmosfia_INA
##  8 k          Atmosfia_INA
##  9 nih        Atmosfia_INA
## 10 tap        Atmosfia_INA
## #  with 8,267 more rows
…
all_twit_df$score <- sapply(all_twit_df$text, score_sentiment)

all_twit_df <- all_twit_df %>% 
  mutate(sentiment = ifelse(score > 0, "positive", ifelse(score < 0, "negative", "neutral")))

all_twit_df %>% 
  filter(sentiment == "positive") %>% 
  select(text) %>% 
  unnest() %>% 
  count(text, sort = TRUE)

## Warning: `cols` is now required.
## Please use `cols = c(text)`

## # A tibble: 1,123 x 2
##    text        n
##    <chr>   <int>
##  1 ya         34
##  2 face       31
##  3 with       26
##  4 sehat      25
##  5 yuk        22
##  6 moga       21
##  7 giat       19
##  8 positif    19
##  9 covid      17
## 10 nih        17
## #  with 1,113 more rows

all_twit_df %>% 
  filter(sentiment == "negative") %>% 
  select(text) %>% 
  unnest() %>% 
  count(text, sort = TRUE)

## Warning: `cols` is now required.
## Please use `cols = c(text)`

## # A tibble: 806 x 2
##    text        n
##    <chr>   <int>
##  1 bosan      30
##  2 ya         26
##  3 face       25
##  4 covid      16
##  5 lupa       16
##  6 rumah      16
##  7 salah      16
##  8 makan      12
##  9 bingung    11
## 10 corona     11
## #  with 796 more rows
